{
    "title": "WE - Checkbox",
    "header": "Versteckbares Bild",
    "content": "<p>Wenn die Checkbox betätigt wird, soll das Bild nicht mehr angezeigt werden. Erneut betätigt soll das Umgekehrte geschehen.</p><hr><a href='solutions/css/checkbox.html' class='solutionLink'>Hier gehts zum Ergebnis</a>"
}