{
    "title": "WE - Sticky",
    "header": "Website mit kleben bleibenden Überschriften",
    "content": "<p>Hier müssen die Überschriften der Website beim herunterscrollen am oberen Bildschirmrand kleben bleiben.</p><hr><a href='solutions/css/sticky.html' class='solutionLink'>Hier gehts zum Ergebnis</a>"
}