{
    "title": "WE - JS Funktionen",
    "header": "JavaScript Funktionen",
    "content": "<p>Hier sind ein paar JavaScript-Funktionen implementiert. Diese wären:</p><hr><p>identity(x);</p><p>identity_function(x)();</p><p>add(x,y);</p><p>mul(x,y);</p><p>add(x)(y);</p><p>applyf(fun)(x)(y)</p><script src='solutions/js/func.js'></script>"
}