{
    "title": "WE - Home",
    "header": "Web Engineering Projekt von Dimitri Reimann",
    "content": "<p>Das ist das Semesterprojekt in dem Fach Web Engineering von Dimitri Reimann.</p><hr><p>In dem Menü an der linken Seite kann man ein Thema auswählen und sich die Unterkategorien sich dazu anschauen. Wenn man dann eine Unterkategorie auswählt erscheint hier der Inhalt zu diesem Thema.</p><hr><p>Unten rechts kann man Feedback dalassen oder sich die Kommentare anderer ansehen</p><hr><p>Wenn man oben links auf das Haus Symbol klickt kommt man zurück zu dieser Seite</p>"
}
